﻿{
    "output_file": "RPGConfig.json",
    "Mode": {
        "type": "numberbox",
        "value": "0",
        "label": "Mode of the rpg script between twitch and discord",
        "tooltip": "0 = Twitch, 1 = Discord",
        "group": ""
    },
    "InfoCommand": {
        "type": "textbox",
        "value": "!rpginfo",
        "label": "Show information about the script command",
        "tooltip": "Name of the Command",
        "group": ""
    },
    "Info": {
        "type": "textbox",
        "value": "A link to the chat RPG commands and classes can be found here: https://docs.google.com/document/d/10WO2YTRINZj9hOguiAUkCWAAkf6VZ-l5f83MUstNH28",
        "label": "Info Response",
        "tooltip": "The message that the bot will display when asked for information. \r\n {0} = time remaining in minutes",
        "group": ""
    },
    "NewCharacterCommand": {
        "type": "textbox",
        "value": "!rpgnew",
        "label": "Create new character command",
        "tooltip": "Name of the Command",
        "group": "New character"
    },
    "StatsCommand": {
        "type": "textbox",
        "value": "!rpgstats",
        "label": "Check stats command",
        "tooltip": "Name of the Command",
        "group": "Check stats"
    },
    "TitlesCommand": {
        "type": "textbox",
        "value": "!rpgtitles",
        "label": "Check titles command",
        "tooltip": "Name of the Command",
        "group": "Check stats"
    },
    "DungeonCommand": {
        "type": "textbox",
        "value": "!rpgdungeon",
        "label": "Dungeon crawl command",
        "tooltip": "Name of the Command",
        "group": "Dungeon"
    },
    "BossCommand": {
        "type": "textbox",
        "value": "!rpgboss",
        "label": "Raid Boss command",
        "tooltip": "Name of the Command",
        "group": "Raid boss"
    },
    "CallBossCommand": {
        "type": "textbox",
        "value": "!rpgcallboss",
        "label": "Command to spawn a boss",
        "tooltip": "Name of the Command",
        "group": "Raid boss"
    },
    "AllBossCD": {
        "type": "textbox",
        "value": "!rpgbosscd",
        "label": "Command to check the cooldown of all bosses",
        "tooltip": "Name of the Command",
        "group": "Raid boss"
    },
    "RestCommand": {
        "type": "textbox",
        "value": "!rpgrest",
        "label": "Rest command",
        "tooltip": "Name of the Command",
        "group": "Rest"
    },
    "ClassChange": {
        "type": "textbox",
        "value": "!classchange",
        "label": "Class change command",
        "tooltip": "Name of the Command",
        "group": "Classes"
    },
    "PrestigeCommand": {
        "type": "textbox",
        "value": "!prestige",
        "label": "Character prestige command",
        "tooltip": "Name of the Command",
        "group": "Classes"
    },
    "ShopCommand": {
        "type": "textbox",
        "value": "!rpgshop",
        "label": "Shop command",
        "tooltip": "Name of the Command",
        "group": "Shop"
    },
    "WorkCommand": {
        "type": "textbox",
        "value": "!rpgwork",
        "label": "Work command",
        "tooltip": "Name of the Command",
        "group": "Work"
    },
    "Permission": {
        "type": "dropdown",
        "value": "Everyone",
        "items": ["Everyone","Regular","Subscriber","Moderator"],
        "label": "Permission level",
        "tooltip": "Set the permission level for the command",
        "group": "Permission"
    },
    "PermissionResp": {
        "type": "textbox",
        "value": "",
        "label": "Permission info.",
        "tooltip": "Permission info to be displayed",
        "group": "Permission"
    },
    "BossDelay": {
        "type": "numberbox",
        "label": "Delay for the boss to start.",
        "value": 120,
        "tooltip": "Time in seconds for the boss fight to start after being called.",
        "group": "Raid boss"
    },
    "UseBossCooldown": {
        "type": "checkbox",
        "value": true,
        "label": "Use cooldown messages for raid bosses.",
        "tooltip": "Enable/Disable cooldown messages for raid bosses",
        "group": "Raid boss"
    },
    "BossCooldown": {
        "type": "numberbox",
        "label": "Raid boss cooldown (seconds).",
        "value": 7200,
        "tooltip": "Cooldown in seconds.",
        "group": "Raid boss"
    },
    "BossOnCooldown": {
        "type": "textbox",
        "value": "There is no boss to fight right now, rumour says one may appear in {0} minutes and {1} seconds!",
        "label": "Cooldown Response",
        "tooltip": "The message that the bot will display when the command is on cooldown. \r\n {0} = minutes remaining \r\n {1} = seconds remaining",
        "group": "Raid boss"
    },
    "Cost": {
        "type": "numberbox",
        "label": "Cost to enter the dungeon.",
        "value": 50,
        "tooltip": "Set the cost for this command.",
        "group": "Dungeon"
    },
    "UseDungeonCooldown": {
        "type": "checkbox",
        "value": true,
        "label": "Use cooldown messages for dungeon crawl.",
        "tooltip": "Enable/Disable cooldown messages for dungeon crawl",
        "group": "Dungeon"
    },
    "DungeonCrawlUserCooldown": {
        "type": "numberbox",
        "label": "User Cooldown (seconds) for entering the dungeon.",
        "value": 1800,
        "tooltip": "User cooldown in seconds.",
        "group": "Dungeon"
    },
    "UserDungeonOnCooldown": {
        "type": "textbox",
        "value": "{0} you are still resting from your last adventure, {1} minutes and {2} seconds until you're ready!",
        "label": "User dungeon cooldown response",
        "tooltip": "The message that the bot will display when the command is on user cooldown. \r\n {0} = user \r\n {1} = minutes remaining \r\n {2} = seconds remaining",
        "group": "Dungeon"
    },
    "ResponseNotEnoughPoints": {
        "type": "textbox",
        "value": "Unfortunately, {0} doesn't have {1} {2} for basic dungeon supplies.",
        "label": "Not enough points",
        "tooltip": "Message that will be posted if the user doesn't have enough currency for the dungeon command. \r\n {0} = user \r\n {1} = cost \r\n {2} = name of currency",
        "group": "Dungeon"
    },
    "RestHP": {
        "type": "numberbox",
        "value": 25,
        "label": "% of hp recovered on rest.",
        "tooltip": "% of hp recovered on rest.",
        "group": "Rest"
    },
    "RestStm": {
        "type": "numberbox",
        "value": 35,
        "label": "% of stamina recovered on rest.",
        "tooltip": "% of stamina recovered on rest.",
        "group": "Rest"
    },
    "UseRestCooldown": {
        "type": "checkbox",
        "value": true,
        "label": "Use cooldown messages for rest.",
        "tooltip": "Enable/Disable cooldown messages for rest",
        "group": "Rest"
    },
    "RestUserCooldown": {
        "type": "numberbox",
        "label": "User Cooldown (seconds) for resting.",
        "value": 3200,
        "tooltip": "User cooldown in seconds.",
        "group": "Rest"
    },
    "UserRestOnCooldown": {
        "type": "textbox",
        "value": "{0} you already rested recently, {1} minutes and {2} seconds until you can rest again!",
        "label": "User dungeon cooldown response",
        "tooltip": "The message that the bot will display when the command is on user cooldown. \r\n {0} = user \r\n {1} = minutes remaining \r\n {1} = seconds remaining",
        "group": "Rest"
    },
}